{
  "localidades": [
    [
      "AREQUIPA",
      64,
      1571
    ],
    [
      "TINTAYA",
      192,
      1478
    ],
    [
      "SICUANI",
      283,
      1446
    ],
    [
      "URCOS",
      382,
      1476
    ],
    [
      "CUSCO",
      461,
      1565
    ],
    [
      "LAS SALINAS",
      183,
      1597
    ],
    [
      "TINCOPALCA",
      294,
      1621
    ],
    [
      "JULIACA",
      374,
      1657
    ],
    [
      "PUNO",
      253,
      1726
    ],
    [
      "MOQUEGUA",
      65,
      1820
    ],
    [
      "TACNA",
      62,
      1972
    ],
    [
      "CAMIARA",
      63,
      1907
    ],
    [
      "EL FISCAL",
      65,
      1753
    ],
    [
      "MOLLENDO",
      64,
      1689
    ],
    [
      "SAN JOSÉ",
      64,
      1633
    ],
    [
      "TRUJILLO",
      71,
      396
    ],
    [
      "CHOCOPE",
      71,
      349
    ],
    [
      "CIUDAD DE DIOS",
      71,
      276
    ],
    [
      "CHILETE",
      275,
      225
    ],
    [
      "CAJAMARCA",
      402,
      167
    ],
    [
      "PORCON ALTO",
      396,
      306
    ],
    [
      "ALGAMARCA",
      400,
      397
    ],
    [
      "VILLA CRUZ",
      398,
      459
    ],
    [
      "KIMAN AYLLU",
      387,
      532
    ],
    [
      "ANTAHURAN",
      375,
      598
    ],
    [
      "CONOCOCHA",
      359,
      673
    ],
    [
      "PILLAO",
      452,
      672
    ],
    [
      "CARHUAMAYO",
      559,
      643
    ],
    [
      "JUNIN",
      534,
      706
    ],
    [
      "LA OROYA",
      457,
      798
    ],
    [
      "MATUCANA",
      305,
      780
    ],
    [
      "MONTERRICO",
      120,
      799
    ],
    [
      "VIRU",
      71,
      446
    ],
    [
      "CHIMBOTE",
      71,
      485
    ],
    [
      "CASMA",
      71,
      536
    ],
    [
      "HUARMEY",
      71,
      583
    ],
    [
      "BARRANCA",
      70,
      634
    ],
    [
      "HUACHO",
      71,
      676
    ],
    [
      "HUARAL",
      70,
      716
    ],
    [
      "SAN ISIDRO",
      24,
      802
    ],
    [
      "MIRAFLORES",
      19,
      885
    ],
    [
      "LURIN",
      68,
      850
    ],
    [
      "MALA",
      69,
      907
    ],
    [
      "CAÑETE",
      68,
      952
    ],
    [
      "CHINCHA ALTA",
      68,
      1005
    ],
    [
      "PISCO",
      68,
      1049
    ],
    [
      "ICA",
      67,
      1098
    ],
    [
      "PALPA",
      68,
      1143
    ],
    [
      "NAZCA",
      68,
      1190
    ],
    [
      "LOMAS",
      68,
      1244
    ],
    [
      "CHALA",
      68,
      1294
    ],
    [
      "ATICO",
      68,
      1346
    ],
    [
      "OCOÑA",
      67,
      1395
    ],
    [
      "CAMANA",
      66,
      1455
    ],
    [
      "PEDREGAL",
      65,
      1509
    ],
    [
      "ABANCAY",
      528,
      1453
    ],
    [
      "ANDAHUAYLAS",
      593,
      1361
    ],
    [
      "AYACUCHO",
      594,
      1221
    ],
    [
      "HUANTA",
      592,
      1105
    ],
    [
      "CAMPO ARMIÑO",
      592,
      1001
    ],
    [
      "HUANCAYO",
      591,
      910
    ],
    [
      "JAUJA",
      558,
      824
    ],
    [
      "WASHINGTON",
      70,
      758
    ],
    [
      "HUARICANGA",
      151,
      621
    ],
    [
      "SANTA ROSA",
      207,
      645
    ],
    [
      "RECUAY",
      277,
      658
    ],
    [
      "CHEPEN",
      70,
      204
    ],
    [
      "CHICLAYO",
      71,
      144
    ],
    [
      "PALO GRUESO",
      70,
      92
    ],
    [
      "REPETIDOR SECHURA CHEPE",
      70,
      35
    ],
    [
      "PIURA",
      70,
      -28
    ],
    [
      "JAEN",
      162,
      -8
    ],
    [
      "CUTERVO",
      261,
      22
    ],
    [
      "BAMBAMARCA",
      357,
      59
    ],
    [
      "CERRO DE PASCO",
      603,
      547
    ],
    [
      "HUANUCO",
      622,
      463
    ],
    [
      "TINGO MARIA",
      631,
      380
    ],
    [
      "PUCALLPA",
      727,
      382
    ],
    [
      "HUANCAVELICA",
      360,
      970
    ],
    [
      "ARMIÑO",
      469,
      920
    ],
    [
      "TARAPOTO",
      633,
      145
    ],
    [
      "BELLAVISTA",
      632,
      203
    ],
    [
      "JUANJUI",
      632,
      257
    ],
    [
      "TOCACHE",
      631,
      319
    ],
    [
      "HUARAZ",
      258,
      518
    ],
    [
      "TUMBES",
      70,
      -299
    ],
    [
      "ZORRITOS",
      69,
      -242
    ],
    [
      "MANCORA",
      70,
      -193
    ],
    [
      "TALARA",
      69,
      -132
    ],
    [
      "PAITA",
      70,
      -82
    ],
    [
      "MOYOBAMBA",
      634,
      95
    ],
    [
      "PUERTO MALDONADO",
      552,
      1654
    ],
    [
      "ASIA",
      229,
      909
    ]
  ],
  "circuitos": {
    "0": {
      "codCircuito": "CR 77347",
      "nombreCircuito": "Arequipa - Cusco Working",
      "circuito": [
        "AREQUIPA",
        "TINTAYA",
        "SICUANI",
        "URCOS",
        "CUSCO"
      ],
      "locCircuitos": [
        [
          64,
          1571
        ],
        [
          192,
          1478
        ],
        [
          283,
          1446
        ],
        [
          382,
          1476
        ],
        [
          461,
          1565
        ]
      ],
      "orden": 13
    },
    "1": {
      "codCircuito": "CR 77348",
      "nombreCircuito": "Arequipa - Juliaca Working",
      "circuito": [
        "AREQUIPA",
        "LAS SALINAS",
        "TINCOPALCA",
        "JULIACA"
      ],
      "locCircuitos": [
        [
          64,
          1571
        ],
        [
          183,
          1597
        ],
        [
          294,
          1621
        ],
        [
          374,
          1657
        ]
      ],
      "orden": 12
    },
    "2": {
      "codCircuito": "CR 77357",
      "nombreCircuito": "Arequipa - Juliaca Protection",
      "circuito": [
        "JULIACA",
        "PUNO",
        "MOQUEGUA",
        "EL FISCAL",
        "MOLLENDO",
        "SAN JOSÉ",
        "AREQUIPA"
      ],
      "locCircuitos": [
        [
          374,
          1657
        ],
        [
          253,
          1726
        ],
        [
          65,
          1820
        ],
        [
          65,
          1753
        ],
        [
          64,
          1689
        ],
        [
          64,
          1633
        ],
        [
          64,
          1571
        ]
      ],
      "orden": 12
    },
    "3": {
      "codCircuito": "CR 77358",
      "nombreCircuito": "Arequipa - Moquegua Working",
      "circuito": [
        "AREQUIPA",
        "SAN JOSÉ",
        "MOLLENDO",
        "EL FISCAL",
        "MOQUEGUA"
      ],
      "locCircuitos": [
        [
          64,
          1571
        ],
        [
          64,
          1633
        ],
        [
          64,
          1689
        ],
        [
          65,
          1753
        ],
        [
          65,
          1820
        ]
      ],
      "orden": 27
    },
    "4": {
      "codCircuito": "CR 77349",
      "nombreCircuito": "Arequipa - Tacna Working",
      "circuito": [
        "AREQUIPA",
        "SAN JOSÉ",
        "MOLLENDO",
        "EL FISCAL",
        "MOQUEGUA",
        "CAMIARA",
        "TACNA"
      ],
      "locCircuitos": [
        [
          64,
          1571
        ],
        [
          64,
          1633
        ],
        [
          64,
          1689
        ],
        [
          65,
          1753
        ],
        [
          65,
          1820
        ],
        [
          63,
          1907
        ],
        [
          62,
          1972
        ]
      ],
      "orden": 16
    },
    "5": {
      "codCircuito": "CR 77356",
      "nombreCircuito": "Arequipa - Tacna Protection",
      "circuito": [
        "AREQUIPA",
        "LAS SALINAS",
        "TINCOPALCA",
        "JULIACA",
        "PUNO",
        "MOQUEGUA",
        "CAMIARA",
        "TACNA"
      ],
      "locCircuitos": [
        [
          64,
          1571
        ],
        [
          183,
          1597
        ],
        [
          294,
          1621
        ],
        [
          374,
          1657
        ],
        [
          253,
          1726
        ],
        [
          65,
          1820
        ],
        [
          63,
          1907
        ],
        [
          62,
          1972
        ]
      ],
      "orden": 16
    },
    "6": {
      "codCircuito": "CR 77354",
      "nombreCircuito": "Juliaca - Puno Working",
      "circuito": [
        "JULIACA",
        "PUNO"
      ],
      "locCircuitos": [
        [
          374,
          1657
        ],
        [
          253,
          1726
        ]
      ],
      "orden": 24
    },
    "7": {
      "codCircuito": "CR 77421",
      "nombreCircuito": "Monterrico - Trujillo Protection",
      "circuito": [
        "TRUJILLO",
        "CHOCOPE",
        "CIUDAD DE DIOS",
        "CHILETE",
        "CAJAMARCA",
        "PORCON ALTO",
        "ALGAMARCA",
        "VILLA CRUZ",
        "KIMAN AYLLU",
        "ANTAHURAN",
        "CONOCOCHA",
        "PILLAO",
        "CARHUAMAYO",
        "JUNIN",
        "LA OROYA",
        "MATUCANA",
        "MONTERRICO"
      ],
      "locCircuitos": [
        [
          71,
          396
        ],
        [
          71,
          349
        ],
        [
          71,
          276
        ],
        [
          275,
          225
        ],
        [
          402,
          167
        ],
        [
          396,
          306
        ],
        [
          400,
          397
        ],
        [
          398,
          459
        ],
        [
          387,
          532
        ],
        [
          375,
          598
        ],
        [
          359,
          673
        ],
        [
          452,
          672
        ],
        [
          559,
          643
        ],
        [
          534,
          706
        ],
        [
          457,
          798
        ],
        [
          305,
          780
        ],
        [
          120,
          799
        ]
      ],
      "orden": 1
    },
    "8": {
      "codCircuito": "CR 77402",
      "nombreCircuito": "San Isidro - Trujillo Working",
      "orden": 1,
      "circuito": [
        "TRUJILLO",
        "VIRU",
        "CHIMBOTE",
        "CASMA",
        "HUARMEY",
        "BARRANCA",
        "HUACHO",
        "HUARAL",
        "WASHINGTON",
        "SAN ISIDRO"
      ],
      "locCircuitos": [
        [
          71,
          396
        ],
        [
          71,
          446
        ],
        [
          71,
          485
        ],
        [
          71,
          536
        ],
        [
          71,
          583
        ],
        [
          70,
          634
        ],
        [
          71,
          676
        ],
        [
          70,
          716
        ],
        [
          70,
          758
        ],
        [
          24,
          802
        ]
      ]
    },
    "9": {
      "codCircuito": "CR 77406",
      "nombreCircuito": "San Isidro - Chincha Working",
      "circuito": [
        "SAN ISIDRO",
        "LURIN",
        "MALA",
        "CAÑETE",
        "CHINCHA ALTA"
      ],
      "locCircuitos": [
        [
          24,
          802
        ],
        [
          68,
          850
        ],
        [
          69,
          907
        ],
        [
          68,
          952
        ],
        [
          68,
          1005
        ]
      ],
      "orden": 7
    },
    "10": {
      "codCircuito": "CR 77424",
      "nombreCircuito": "Monterrico - Chincha Protection ",
      "circuito": [
        "CHINCHA ALTA",
        "PISCO",
        "ICA",
        "PALPA",
        "NAZCA",
        "LOMAS",
        "CHALA",
        "ATICO",
        "OCOÑA",
        "CAMANA",
        "PEDREGAL",
        "AREQUIPA",
        "LAS SALINAS",
        "TINCOPALCA",
        "JULIACA",
        "CUSCO",
        "ABANCAY",
        "ANDAHUAYLAS",
        "AYACUCHO",
        "HUANTA",
        "CAMPO ARMIÑO",
        "HUANCAYO",
        "JAUJA",
        "LA OROYA",
        "MATUCANA",
        "MONTERRICO"
      ],
      "locCircuitos": [
        [
          68,
          1005
        ],
        [
          68,
          1049
        ],
        [
          67,
          1098
        ],
        [
          68,
          1143
        ],
        [
          68,
          1190
        ],
        [
          68,
          1244
        ],
        [
          68,
          1294
        ],
        [
          68,
          1346
        ],
        [
          67,
          1395
        ],
        [
          66,
          1455
        ],
        [
          65,
          1509
        ],
        [
          64,
          1571
        ],
        [
          183,
          1597
        ],
        [
          294,
          1621
        ],
        [
          374,
          1657
        ],
        [
          461,
          1565
        ],
        [
          528,
          1453
        ],
        [
          593,
          1361
        ],
        [
          594,
          1221
        ],
        [
          592,
          1105
        ],
        [
          592,
          1001
        ],
        [
          591,
          910
        ],
        [
          558,
          824
        ],
        [
          457,
          798
        ],
        [
          305,
          780
        ],
        [
          120,
          799
        ]
      ],
      "orden": 7
    },
    "11": {
      "codCircuito": "CR 77425",
      "nombreCircuito": "Monterrico - Chincha Protection ",
      "circuito": [
        "MONTERRICO",
        "MATUCANA",
        "LA OROYA",
        "JAUJA",
        "HUANCAYO",
        "CAMPO ARMIÑO",
        "HUANTA",
        "AYACUCHO",
        "ANDAHUAYLAS",
        "ABANCAY",
        "CUSCO",
        "JULIACA",
        "TINCOPALCA",
        "LAS SALINAS",
        "AREQUIPA",
        "PEDREGAL",
        "CAMANA",
        "OCOÑA",
        "ATICO",
        "CHALA",
        "LOMAS",
        "NAZCA",
        "PALPA",
        "ICA",
        "PISCO",
        "CHINCHA ALTA"
      ],
      "locCircuitos": [
        [
          120,
          799
        ],
        [
          305,
          780
        ],
        [
          457,
          798
        ],
        [
          558,
          824
        ],
        [
          591,
          910
        ],
        [
          592,
          1001
        ],
        [
          592,
          1105
        ],
        [
          594,
          1221
        ],
        [
          593,
          1361
        ],
        [
          528,
          1453
        ],
        [
          461,
          1565
        ],
        [
          374,
          1657
        ],
        [
          294,
          1621
        ],
        [
          183,
          1597
        ],
        [
          64,
          1571
        ],
        [
          65,
          1509
        ],
        [
          66,
          1455
        ],
        [
          67,
          1395
        ],
        [
          68,
          1346
        ],
        [
          68,
          1294
        ],
        [
          68,
          1244
        ],
        [
          68,
          1190
        ],
        [
          68,
          1143
        ],
        [
          67,
          1098
        ],
        [
          68,
          1049
        ],
        [
          68,
          1005
        ]
      ],
      "orden": 7
    },
    "12": {
      "codCircuito": "CR 77401",
      "nombreCircuito": "Monterrico - Huancayo Working",
      "circuito": [
        "HUANCAYO",
        "JAUJA",
        "LA OROYA",
        "MATUCANA",
        "MONTERRICO"
      ],
      "locCircuitos": [
        [
          591,
          910
        ],
        [
          558,
          824
        ],
        [
          457,
          798
        ],
        [
          305,
          780
        ],
        [
          120,
          799
        ]
      ],
      "orden": 4
    },
    "13": {
      "codCircuito": "CR 77422",
      "nombreCircuito": "San Isidro - Huancayo Protection",
      "circuito": [
        "SAN ISIDRO",
        "LURIN",
        "MALA",
        "CAÑETE",
        "CHINCHA ALTA",
        "PISCO",
        "ICA",
        "PALPA",
        "NAZCA",
        "LOMAS",
        "CHALA",
        "ATICO",
        "OCOÑA",
        "CAMANA",
        "PEDREGAL",
        "AREQUIPA",
        "LAS SALINAS",
        "TINCOPALCA",
        "JULIACA",
        "CUSCO",
        "ABANCAY",
        "ANDAHUAYLAS",
        "AYACUCHO",
        "HUANTA",
        "CAMPO ARMIÑO",
        "HUANCAYO"
      ],
      "locCircuitos": [
        [
          24,
          802
        ],
        [
          68,
          850
        ],
        [
          69,
          907
        ],
        [
          68,
          952
        ],
        [
          68,
          1005
        ],
        [
          68,
          1049
        ],
        [
          67,
          1098
        ],
        [
          68,
          1143
        ],
        [
          68,
          1190
        ],
        [
          68,
          1244
        ],
        [
          68,
          1294
        ],
        [
          68,
          1346
        ],
        [
          67,
          1395
        ],
        [
          66,
          1455
        ],
        [
          65,
          1509
        ],
        [
          64,
          1571
        ],
        [
          183,
          1597
        ],
        [
          294,
          1621
        ],
        [
          374,
          1657
        ],
        [
          461,
          1565
        ],
        [
          528,
          1453
        ],
        [
          593,
          1361
        ],
        [
          594,
          1221
        ],
        [
          592,
          1105
        ],
        [
          592,
          1001
        ],
        [
          591,
          910
        ]
      ],
      "orden": 0
    },
    "14": {
      "codCircuito": "CR 77407",
      "nombreCircuito": "San Isidro - Ica Working",
      "circuito": [
        "SAN ISIDRO",
        "LURIN",
        "MALA",
        "CAÑETE",
        "CHINCHA ALTA",
        "PISCO",
        "ICA"
      ],
      "locCircuitos": [
        [
          24,
          802
        ],
        [
          68,
          850
        ],
        [
          69,
          907
        ],
        [
          68,
          952
        ],
        [
          68,
          1005
        ],
        [
          68,
          1049
        ],
        [
          67,
          1098
        ]
      ],
      "orden": 8
    },
    "15": {
      "codCircuito": "CR 77426",
      "nombreCircuito": "Monterrico - Ica Protection ",
      "circuito": [
        "ICA",
        "PALPA",
        "NAZCA",
        "LOMAS",
        "CHALA",
        "ATICO",
        "OCOÑA",
        "CAMANA",
        "PEDREGAL",
        "AREQUIPA",
        "LAS SALINAS",
        "TINCOPALCA",
        "JULIACA",
        "CUSCO",
        "ABANCAY",
        "ANDAHUAYLAS",
        "AYACUCHO",
        "HUANTA",
        "CAMPO ARMIÑO",
        "HUANCAYO",
        "JAUJA",
        "LA OROYA",
        "MATUCANA",
        "MONTERRICO"
      ],
      "locCircuitos": [
        [
          67,
          1098
        ],
        [
          68,
          1143
        ],
        [
          68,
          1190
        ],
        [
          68,
          1244
        ],
        [
          68,
          1294
        ],
        [
          68,
          1346
        ],
        [
          67,
          1395
        ],
        [
          66,
          1455
        ],
        [
          65,
          1509
        ],
        [
          64,
          1571
        ],
        [
          183,
          1597
        ],
        [
          294,
          1621
        ],
        [
          374,
          1657
        ],
        [
          461,
          1565
        ],
        [
          528,
          1453
        ],
        [
          593,
          1361
        ],
        [
          594,
          1221
        ],
        [
          592,
          1105
        ],
        [
          592,
          1001
        ],
        [
          591,
          910
        ],
        [
          558,
          824
        ],
        [
          457,
          798
        ],
        [
          305,
          780
        ],
        [
          120,
          799
        ]
      ],
      "orden": 8
    },
    "16": {
      "codCircuito": "CR 77427",
      "nombreCircuito": "Monterrico - Ica Protection ",
      "circuito": [
        "ICA",
        "PALPA",
        "NAZCA",
        "LOMAS",
        "CHALA",
        "ATICO",
        "OCOÑA",
        "CAMANA",
        "PEDREGAL",
        "AREQUIPA",
        "LAS SALINAS",
        "TINCOPALCA",
        "JULIACA",
        "CUSCO",
        "ABANCAY",
        "ANDAHUAYLAS",
        "AYACUCHO",
        "HUANTA",
        "CAMPO ARMIÑO",
        "HUANCAYO",
        "JAUJA",
        "LA OROYA",
        "MATUCANA",
        "MONTERRICO"
      ],
      "locCircuitos": [
        [
          67,
          1098
        ],
        [
          68,
          1143
        ],
        [
          68,
          1190
        ],
        [
          68,
          1244
        ],
        [
          68,
          1294
        ],
        [
          68,
          1346
        ],
        [
          67,
          1395
        ],
        [
          66,
          1455
        ],
        [
          65,
          1509
        ],
        [
          64,
          1571
        ],
        [
          183,
          1597
        ],
        [
          294,
          1621
        ],
        [
          374,
          1657
        ],
        [
          461,
          1565
        ],
        [
          528,
          1453
        ],
        [
          593,
          1361
        ],
        [
          594,
          1221
        ],
        [
          592,
          1105
        ],
        [
          592,
          1001
        ],
        [
          591,
          910
        ],
        [
          558,
          824
        ],
        [
          457,
          798
        ],
        [
          305,
          780
        ],
        [
          120,
          799
        ]
      ],
      "orden": 8
    },
    "17": {
      "codCircuito": "CR 77403",
      "nombreCircuito": "San Isidro - Arequipa Working",
      "circuito": [
        "AREQUIPA",
        "PEDREGAL",
        "CAMANA",
        "OCOÑA",
        "ATICO",
        "CHALA",
        "LOMAS",
        "NAZCA",
        "PALPA",
        "ICA",
        "PISCO",
        "CHINCHA ALTA",
        "CAÑETE",
        "MALA",
        "LURIN",
        "SAN ISIDRO"
      ],
      "locCircuitos": [
        [
          64,
          1571
        ],
        [
          65,
          1509
        ],
        [
          66,
          1455
        ],
        [
          67,
          1395
        ],
        [
          68,
          1346
        ],
        [
          68,
          1294
        ],
        [
          68,
          1244
        ],
        [
          68,
          1190
        ],
        [
          68,
          1143
        ],
        [
          67,
          1098
        ],
        [
          68,
          1049
        ],
        [
          68,
          1005
        ],
        [
          68,
          952
        ],
        [
          69,
          907
        ],
        [
          68,
          850
        ],
        [
          24,
          802
        ]
      ],
      "orden": 2
    },
    "18": {
      "codCircuito": "CR 77428",
      "nombreCircuito": "Monterrico - Arequipa Protectio",
      "circuito": [
        "AREQUIPA",
        "LAS SALINAS",
        "TINCOPALCA",
        "JULIACA",
        "CUSCO",
        "ABANCAY",
        "ANDAHUAYLAS",
        "AYACUCHO",
        "HUANTA",
        "CAMPO ARMIÑO",
        "HUANCAYO",
        "JAUJA",
        "LA OROYA",
        "MATUCANA",
        "MONTERRICO"
      ],
      "locCircuitos": [
        [
          64,
          1571
        ],
        [
          183,
          1597
        ],
        [
          294,
          1621
        ],
        [
          374,
          1657
        ],
        [
          461,
          1565
        ],
        [
          528,
          1453
        ],
        [
          593,
          1361
        ],
        [
          594,
          1221
        ],
        [
          592,
          1105
        ],
        [
          592,
          1001
        ],
        [
          591,
          910
        ],
        [
          558,
          824
        ],
        [
          457,
          798
        ],
        [
          305,
          780
        ],
        [
          120,
          799
        ]
      ],
      "orden": 2
    },
    "19": {
      "codCircuito": "CR 77405",
      "nombreCircuito": "San Isidro - Huarmey Working",
      "circuito": [
        "SAN ISIDRO",
        "WASHINGTON",
        "HUARAL",
        "HUACHO",
        "BARRANCA",
        "HUARMEY"
      ],
      "locCircuitos": [
        [
          24,
          802
        ],
        [
          70,
          758
        ],
        [
          70,
          716
        ],
        [
          71,
          676
        ],
        [
          70,
          634
        ],
        [
          71,
          583
        ]
      ],
      "orden": 22
    },
    "20": {
      "codCircuito": "CR 77343",
      "nombreCircuito": "Huancayo - Ayacucho Working",
      "circuito": [
        "HUANCAYO",
        "CAMPO ARMIÑO",
        "HUANTA",
        "AYACUCHO"
      ],
      "locCircuitos": [
        [
          591,
          910
        ],
        [
          592,
          1001
        ],
        [
          592,
          1105
        ],
        [
          594,
          1221
        ]
      ],
      "orden": 20
    },
    "21": {
      "codCircuito": "CR 77392",
      "nombreCircuito": "Trujillo - Chimbote Working ",
      "circuito": [
        "CHIMBOTE",
        "VIRU",
        "TRUJILLO"
      ],
      "locCircuitos": [
        [
          71,
          485
        ],
        [
          71,
          446
        ],
        [
          71,
          396
        ]
      ],
      "orden": 6
    },
    "22": {
      "codCircuito": "CR 77411",
      "nombreCircuito": "Trujillo - Chimbote Protection ",
      "circuito": [
        "CHIMBOTE",
        "CASMA",
        "HUARMEY",
        "HUARICANGA",
        "SANTA ROSA",
        "RECUAY",
        "CONOCOCHA",
        "ANTAHURAN",
        "KIMAN AYLLU",
        "VILLA CRUZ",
        "ALGAMARCA",
        "PORCON ALTO",
        "CAJAMARCA",
        "CHILETE",
        "CIUDAD DE DIOS",
        "CHOCOPE",
        "TRUJILLO"
      ],
      "locCircuitos": [
        [
          71,
          485
        ],
        [
          71,
          536
        ],
        [
          71,
          583
        ],
        [
          151,
          621
        ],
        [
          207,
          645
        ],
        [
          277,
          658
        ],
        [
          359,
          673
        ],
        [
          375,
          598
        ],
        [
          387,
          532
        ],
        [
          398,
          459
        ],
        [
          400,
          397
        ],
        [
          396,
          306
        ],
        [
          402,
          167
        ],
        [
          275,
          225
        ],
        [
          71,
          276
        ],
        [
          71,
          349
        ],
        [
          71,
          396
        ]
      ],
      "orden": 6
    },
    "23": {
      "codCircuito": "CR 77393",
      "nombreCircuito": "Trujillo - Chimbote Working ",
      "circuito": [
        "TRUJILLO",
        "VIRU",
        "CHIMBOTE"
      ],
      "locCircuitos": [
        [
          71,
          396
        ],
        [
          71,
          446
        ],
        [
          71,
          485
        ]
      ],
      "orden": 6
    },
    "24": {
      "codCircuito": "CR 77412",
      "nombreCircuito": "Trujillo - Chimbote Protection ",
      "circuito": [
        "CHIMBOTE",
        "CASMA",
        "HUARMEY",
        "HUARICANGA",
        "SANTA ROSA",
        "RECUAY",
        "CONOCOCHA",
        "ANTAHURAN",
        "KIMAN AYLLU",
        "VILLA CRUZ",
        "ALGAMARCA",
        "PORCON ALTO",
        "CAJAMARCA",
        "CHILETE",
        "CIUDAD DE DIOS",
        "CHOCOPE",
        "TRUJILLO"
      ],
      "locCircuitos": [
        [
          71,
          485
        ],
        [
          71,
          536
        ],
        [
          71,
          583
        ],
        [
          151,
          621
        ],
        [
          207,
          645
        ],
        [
          277,
          658
        ],
        [
          359,
          673
        ],
        [
          375,
          598
        ],
        [
          387,
          532
        ],
        [
          398,
          459
        ],
        [
          400,
          397
        ],
        [
          396,
          306
        ],
        [
          402,
          167
        ],
        [
          275,
          225
        ],
        [
          71,
          276
        ],
        [
          71,
          349
        ],
        [
          71,
          396
        ]
      ],
      "orden": 6
    },
    "25": {
      "codCircuito": "CR 77391",
      "nombreCircuito": "Oroya - Huancayo Workin",
      "circuito": [
        "LA OROYA",
        "JAUJA",
        "HUANCAYO"
      ],
      "locCircuitos": [
        [
          457,
          798
        ],
        [
          558,
          824
        ],
        [
          591,
          910
        ]
      ],
      "orden": 11
    },
    "26": {
      "codCircuito": "CR 77394",
      "nombreCircuito": "Trujillo - Chiclayo Working ",
      "circuito": [
        "TRUJILLO",
        "CHOCOPE",
        "CIUDAD DE DIOS",
        "CHEPEN",
        "CHICLAYO"
      ],
      "locCircuitos": [
        [
          71,
          396
        ],
        [
          71,
          349
        ],
        [
          71,
          276
        ],
        [
          70,
          204
        ],
        [
          71,
          144
        ]
      ],
      "orden": 3
    },
    "27": {
      "codCircuito": "CR 77413",
      "nombreCircuito": "Trujillo - Chiclayo Protection ",
      "circuito": [
        "CHICLAYO",
        "PALO GRUESO",
        "REPETIDOR SECHURA CHEPE",
        "PIURA",
        "JAEN",
        "CUTERVO",
        "BAMBAMARCA",
        "CAJAMARCA",
        "PORCON ALTO",
        "ALGAMARCA",
        "VILLA CRUZ",
        "KIMAN AYLLU",
        "ANTAHURAN",
        "CONOCOCHA",
        "RECUAY",
        "SANTA ROSA",
        "HUARICANGA",
        "HUARMEY",
        "CASMA",
        "CHIMBOTE",
        "VIRU",
        "TRUJILLO"
      ],
      "locCircuitos": [
        [
          71,
          144
        ],
        [
          70,
          92
        ],
        [
          70,
          35
        ],
        [
          70,
          -28
        ],
        [
          162,
          -8
        ],
        [
          261,
          22
        ],
        [
          357,
          59
        ],
        [
          402,
          167
        ],
        [
          396,
          306
        ],
        [
          400,
          397
        ],
        [
          398,
          459
        ],
        [
          387,
          532
        ],
        [
          375,
          598
        ],
        [
          359,
          673
        ],
        [
          277,
          658
        ],
        [
          207,
          645
        ],
        [
          151,
          621
        ],
        [
          71,
          583
        ],
        [
          71,
          536
        ],
        [
          71,
          485
        ],
        [
          71,
          446
        ],
        [
          71,
          396
        ]
      ],
      "orden": 3
    },
    "28": {
      "codCircuito": "CR 77395",
      "nombreCircuito": "Trujillo - Chiclayo Working ",
      "circuito": [
        "TRUJILLO",
        "CHOCOPE",
        "CIUDAD DE DIOS",
        "CHEPEN",
        "CHICLAYO"
      ],
      "locCircuitos": [
        [
          71,
          396
        ],
        [
          71,
          349
        ],
        [
          71,
          276
        ],
        [
          70,
          204
        ],
        [
          71,
          144
        ]
      ],
      "orden": 3
    },
    "29": {
      "codCircuito": "CR 77414",
      "nombreCircuito": "Trujillo - Chiclayo Protection ",
      "circuito": [
        "CHICLAYO",
        "PALO GRUESO",
        "REPETIDOR SECHURA CHEPE",
        "PIURA",
        "JAEN",
        "CUTERVO",
        "BAMBAMARCA",
        "CAJAMARCA",
        "PORCON ALTO",
        "ALGAMARCA",
        "VILLA CRUZ",
        "KIMAN AYLLU",
        "ANTAHURAN",
        "CONOCOCHA",
        "RECUAY",
        "SANTA ROSA",
        "HUARICANGA",
        "HUARMEY",
        "CASMA",
        "CHIMBOTE",
        "VIRU",
        "TRUJILLO"
      ],
      "locCircuitos": [
        [
          71,
          144
        ],
        [
          70,
          92
        ],
        [
          70,
          35
        ],
        [
          70,
          -28
        ],
        [
          162,
          -8
        ],
        [
          261,
          22
        ],
        [
          357,
          59
        ],
        [
          402,
          167
        ],
        [
          396,
          306
        ],
        [
          400,
          397
        ],
        [
          398,
          459
        ],
        [
          387,
          532
        ],
        [
          375,
          598
        ],
        [
          359,
          673
        ],
        [
          277,
          658
        ],
        [
          207,
          645
        ],
        [
          151,
          621
        ],
        [
          71,
          583
        ],
        [
          71,
          536
        ],
        [
          71,
          485
        ],
        [
          71,
          446
        ],
        [
          71,
          396
        ]
      ],
      "orden": 3
    },
    "30": {
      "codCircuito": "CR 77396",
      "nombreCircuito": "Trujillo - Chiclayo Working ",
      "circuito": [
        "TRUJILLO",
        "CHOCOPE",
        "CIUDAD DE DIOS",
        "CHEPEN",
        "CHICLAYO"
      ],
      "locCircuitos": [
        [
          71,
          396
        ],
        [
          71,
          349
        ],
        [
          71,
          276
        ],
        [
          70,
          204
        ],
        [
          71,
          144
        ]
      ],
      "orden": 3
    },
    "31": {
      "codCircuito": "CR 77415",
      "nombreCircuito": "Trujillo - Chiclayo Protection ",
      "circuito": [
        "CHICLAYO",
        "PALO GRUESO",
        "REPETIDOR SECHURA CHEPE",
        "PIURA",
        "JAEN",
        "CUTERVO",
        "BAMBAMARCA",
        "CAJAMARCA",
        "PORCON ALTO",
        "ALGAMARCA",
        "VILLA CRUZ",
        "KIMAN AYLLU",
        "ANTAHURAN",
        "CONOCOCHA",
        "RECUAY",
        "SANTA ROSA",
        "HUARICANGA",
        "HUARMEY",
        "CASMA",
        "CHIMBOTE",
        "VIRU",
        "TRUJILLO"
      ],
      "locCircuitos": [
        [
          71,
          144
        ],
        [
          70,
          92
        ],
        [
          70,
          35
        ],
        [
          70,
          -28
        ],
        [
          162,
          -8
        ],
        [
          261,
          22
        ],
        [
          357,
          59
        ],
        [
          402,
          167
        ],
        [
          396,
          306
        ],
        [
          400,
          397
        ],
        [
          398,
          459
        ],
        [
          387,
          532
        ],
        [
          375,
          598
        ],
        [
          359,
          673
        ],
        [
          277,
          658
        ],
        [
          207,
          645
        ],
        [
          151,
          621
        ],
        [
          71,
          583
        ],
        [
          71,
          536
        ],
        [
          71,
          485
        ],
        [
          71,
          446
        ],
        [
          71,
          396
        ]
      ],
      "orden": 3
    },
    "32": {
      "codCircuito": "CR 77397",
      "nombreCircuito": "Trujillo - Chiclayo Working ",
      "circuito": [
        "TRUJILLO",
        "CHOCOPE",
        "CIUDAD DE DIOS",
        "CHEPEN",
        "CHICLAYO"
      ],
      "locCircuitos": [
        [
          71,
          396
        ],
        [
          71,
          349
        ],
        [
          71,
          276
        ],
        [
          70,
          204
        ],
        [
          71,
          144
        ]
      ],
      "orden": 3
    },
    "33": {
      "codCircuito": "CR 77416",
      "nombreCircuito": "Trujillo - Chiclayo Protection ",
      "circuito": [
        "CHICLAYO",
        "PALO GRUESO",
        "REPETIDOR SECHURA CHEPE",
        "PIURA",
        "JAEN",
        "CUTERVO",
        "BAMBAMARCA",
        "CAJAMARCA",
        "PORCON ALTO",
        "ALGAMARCA",
        "VILLA CRUZ",
        "KIMAN AYLLU",
        "ANTAHURAN",
        "CONOCOCHA",
        "RECUAY",
        "SANTA ROSA",
        "HUARICANGA",
        "HUARMEY",
        "CASMA",
        "CHIMBOTE",
        "VIRU",
        "TRUJILLO"
      ],
      "locCircuitos": [
        [
          71,
          144
        ],
        [
          70,
          92
        ],
        [
          70,
          35
        ],
        [
          70,
          -28
        ],
        [
          162,
          -8
        ],
        [
          261,
          22
        ],
        [
          357,
          59
        ],
        [
          402,
          167
        ],
        [
          396,
          306
        ],
        [
          400,
          397
        ],
        [
          398,
          459
        ],
        [
          387,
          532
        ],
        [
          375,
          598
        ],
        [
          359,
          673
        ],
        [
          277,
          658
        ],
        [
          207,
          645
        ],
        [
          151,
          621
        ],
        [
          71,
          583
        ],
        [
          71,
          536
        ],
        [
          71,
          485
        ],
        [
          71,
          446
        ],
        [
          71,
          396
        ]
      ],
      "orden": 3
    },
    "34": {
      "codCircuito": "CR 77341",
      "nombreCircuito": "Huancayo - Tingo Maria Working",
      "circuito": [
        "HUANCAYO",
        "JAUJA",
        "LA OROYA",
        "JUNIN",
        "CARHUAMAYO",
        "CERRO DE PASCO",
        "HUANUCO",
        "TINGO MARIA"
      ],
      "locCircuitos": [
        [
          591,
          910
        ],
        [
          558,
          824
        ],
        [
          457,
          798
        ],
        [
          534,
          706
        ],
        [
          559,
          643
        ],
        [
          603,
          547
        ],
        [
          622,
          463
        ],
        [
          631,
          380
        ]
      ],
      "orden": 26
    },
    "35": {
      "codCircuito": "CR 77346",
      "nombreCircuito": "Trujillo - Cajamarca Working",
      "circuito": [
        "CAJAMARCA",
        "CHILETE",
        "CIUDAD DE DIOS",
        "CHOCOPE",
        "TRUJILLO"
      ],
      "locCircuitos": [
        [
          402,
          167
        ],
        [
          275,
          225
        ],
        [
          71,
          276
        ],
        [
          71,
          349
        ],
        [
          71,
          396
        ]
      ],
      "orden": 14
    },
    "36": {
      "codCircuito": "CR 77410",
      "nombreCircuito": "Trujillo - Cajamarca Protection",
      "circuito": [
        "CAJAMARCA",
        "PORCON ALTO",
        "ALGAMARCA",
        "VILLA CRUZ",
        "KIMAN AYLLU",
        "ANTAHURAN",
        "CONOCOCHA",
        "RECUAY",
        "SANTA ROSA",
        "HUARICANGA",
        "HUARMEY",
        "CASMA",
        "CHIMBOTE",
        "VIRU",
        "TRUJILLO"
      ],
      "locCircuitos": [
        [
          402,
          167
        ],
        [
          396,
          306
        ],
        [
          400,
          397
        ],
        [
          398,
          459
        ],
        [
          387,
          532
        ],
        [
          375,
          598
        ],
        [
          359,
          673
        ],
        [
          277,
          658
        ],
        [
          207,
          645
        ],
        [
          151,
          621
        ],
        [
          71,
          583
        ],
        [
          71,
          536
        ],
        [
          71,
          485
        ],
        [
          71,
          446
        ],
        [
          71,
          396
        ]
      ],
      "orden": 14
    },
    "37": {
      "codCircuito": "CR 77342",
      "nombreCircuito": "Huancayo - Pucallpa Working",
      "circuito": [
        "HUANCAYO",
        "JAUJA",
        "LA OROYA",
        "JUNIN",
        "CARHUAMAYO",
        "CERRO DE PASCO",
        "HUANUCO",
        "TINGO MARIA",
        "PUCALLPA"
      ],
      "locCircuitos": [
        [
          591,
          910
        ],
        [
          558,
          824
        ],
        [
          457,
          798
        ],
        [
          534,
          706
        ],
        [
          559,
          643
        ],
        [
          603,
          547
        ],
        [
          622,
          463
        ],
        [
          631,
          380
        ],
        [
          727,
          382
        ]
      ],
      "orden": 18
    },
    "38": {
      "codCircuito": "CR 77342",
      "nombreCircuito": "Huancayo - Huancavelica Working",
      "circuito": [
        "HUANCAVELICA",
        "ARMIÑO",
        "HUANCAYO"
      ],
      "locCircuitos": [
        [
          360,
          970
        ],
        [
          469,
          920
        ],
        [
          591,
          910
        ]
      ]
    },
    "39": {
      "codCircuito": "CR 77345",
      "nombreCircuito": "Trujillo - Tarapoto Working",
      "circuito": [
        "TARAPOTO",
        "BELLAVISTA",
        "JUANJUI",
        "TOCACHE",
        "TINGO MARIA",
        "HUANUCO",
        "CERRO DE PASCO",
        "CARHUAMAYO",
        "PILLAO",
        "CONOCOCHA",
        "RECUAY",
        "SANTA ROSA",
        "HUARICANGA",
        "HUARMEY",
        "CASMA",
        "CHIMBOTE",
        "VIRU",
        "TRUJILLO"
      ],
      "locCircuitos": [
        [
          633,
          145
        ],
        [
          632,
          203
        ],
        [
          632,
          257
        ],
        [
          631,
          319
        ],
        [
          631,
          380
        ],
        [
          622,
          463
        ],
        [
          603,
          547
        ],
        [
          559,
          643
        ],
        [
          452,
          672
        ],
        [
          359,
          673
        ],
        [
          277,
          658
        ],
        [
          207,
          645
        ],
        [
          151,
          621
        ],
        [
          71,
          583
        ],
        [
          71,
          536
        ],
        [
          71,
          485
        ],
        [
          71,
          446
        ],
        [
          71,
          396
        ]
      ],
      "orden": 17
    },
    "40": {
      "codCircuito": "CR 77344",
      "nombreCircuito": "Trujillo - Huaraz Working",
      "circuito": [
        "TRUJILLO",
        "VIRU",
        "CHIMBOTE",
        "CASMA",
        "HUARMEY",
        "HUARICANGA",
        "SANTA ROSA",
        "RECUAY",
        "HUARAZ"
      ],
      "locCircuitos": [
        [
          71,
          396
        ],
        [
          71,
          446
        ],
        [
          71,
          485
        ],
        [
          71,
          536
        ],
        [
          71,
          583
        ],
        [
          151,
          621
        ],
        [
          207,
          645
        ],
        [
          277,
          658
        ],
        [
          258,
          518
        ]
      ],
      "orden": 15
    },
    "41": {
      "codCircuito": "CR 77353",
      "nombreCircuito": "Piura - Tumbes Working",
      "circuito": [
        "TUMBES",
        "ZORRITOS",
        "MANCORA",
        "TALARA",
        "PAITA",
        "PIURA"
      ],
      "locCircuitos": [
        [
          70,
          -299
        ],
        [
          69,
          -242
        ],
        [
          70,
          -193
        ],
        [
          69,
          -132
        ],
        [
          70,
          -82
        ],
        [
          70,
          -28
        ]
      ],
      "orden": 21
    },
    "42": {
      "codCircuito": "CR 77398",
      "nombreCircuito": "Chiclayo - Piura Working ",
      "circuito": [
        "CHICLAYO",
        "PALO GRUESO",
        "REPETIDOR SECHURA CHEPE",
        "PIURA"
      ],
      "locCircuitos": [
        [
          71,
          144
        ],
        [
          70,
          92
        ],
        [
          70,
          35
        ],
        [
          70,
          -28
        ]
      ],
      "orden": 5
    },
    "43": {
      "codCircuito": "CR 77417",
      "nombreCircuito": "Chiclayo - Piura Protection ",
      "circuito": [
        "CHICLAYO",
        "CHEPEN",
        "CIUDAD DE DIOS",
        "CHILETE",
        "CAJAMARCA",
        "BAMBAMARCA",
        "CUTERVO",
        "JAEN",
        "PIURA"
      ],
      "locCircuitos": [
        [
          71,
          144
        ],
        [
          70,
          204
        ],
        [
          71,
          276
        ],
        [
          275,
          225
        ],
        [
          402,
          167
        ],
        [
          357,
          59
        ],
        [
          261,
          22
        ],
        [
          162,
          -8
        ],
        [
          70,
          -28
        ]
      ],
      "orden": 5
    },
    "44": {
      "codCircuito": "CR 77399",
      "nombreCircuito": "Chiclayo - Piura Working ",
      "circuito": [
        "CHICLAYO",
        "PALO GRUESO",
        "REPETIDOR SECHURA CHEPE",
        "PIURA"
      ],
      "locCircuitos": [
        [
          71,
          144
        ],
        [
          70,
          92
        ],
        [
          70,
          35
        ],
        [
          70,
          -28
        ]
      ],
      "orden": 5
    },
    "45": {
      "codCircuito": "CR 77418",
      "nombreCircuito": "Chiclayo - Piura Protection ",
      "circuito": [
        "CHICLAYO",
        "CHEPEN",
        "CIUDAD DE DIOS",
        "CHILETE",
        "CAJAMARCA",
        "BAMBAMARCA",
        "CUTERVO",
        "JAEN"
      ],
      "locCircuitos": [
        [
          71,
          144
        ],
        [
          70,
          204
        ],
        [
          71,
          276
        ],
        [
          275,
          225
        ],
        [
          402,
          167
        ],
        [
          357,
          59
        ],
        [
          261,
          22
        ],
        [
          162,
          -8
        ]
      ],
      "orden": 5
    },
    "46": {
      "codCircuito": "CR 77400",
      "nombreCircuito": "Chiclayo - Piura Working ",
      "circuito": [
        "CHICLAYO",
        "PALO GRUESO",
        "REPETIDOR SECHURA CHEPE",
        "PIURA"
      ],
      "locCircuitos": [
        [
          71,
          144
        ],
        [
          70,
          92
        ],
        [
          70,
          35
        ],
        [
          70,
          -28
        ]
      ],
      "orden": 5
    },
    "47": {
      "codCircuito": "CR 77419",
      "nombreCircuito": "Chiclayo - Piura Protection ",
      "circuito": [
        "CHICLAYO",
        "CHEPEN",
        "CIUDAD DE DIOS",
        "CHILETE",
        "CAJAMARCA",
        "BAMBAMARCA",
        "CUTERVO",
        "JAEN",
        "PIURA"
      ],
      "locCircuitos": [
        [
          71,
          144
        ],
        [
          70,
          204
        ],
        [
          71,
          276
        ],
        [
          275,
          225
        ],
        [
          402,
          167
        ],
        [
          357,
          59
        ],
        [
          261,
          22
        ],
        [
          162,
          -8
        ],
        [
          70,
          -28
        ]
      ],
      "orden": 5
    },
    "48": {
      "codCircuito": "CR 77352",
      "nombreCircuito": "Moyobamba - Tarapoto Working",
      "circuito": [
        "TARAPOTO",
        "MOYOBAMBA"
      ],
      "locCircuitos": [
        [
          633,
          145
        ],
        [
          634,
          95
        ]
      ],
      "orden": 25
    },
    "49": {
      "codCircuito": "CR 77355",
      "nombreCircuito": "Cajamarca - Jaen Working",
      "circuito": [
        "CAJAMARCA",
        "BAMBAMARCA",
        "CUTERVO",
        "JAEN"
      ],
      "locCircuitos": [
        [
          402,
          167
        ],
        [
          357,
          59
        ],
        [
          261,
          22
        ],
        [
          162,
          -8
        ]
      ],
      "orden": 23
    },
    "50": {
      "codCircuito": "CR 77409",
      "nombreCircuito": "Juliaca - Madre de Dios Working",
      "circuito": [
        "JULIACA",
        "PUERTO MALDONADO"
      ],
      "locCircuitos": [
        [
          374,
          1657
        ],
        [
          552,
          1654
        ]
      ],
      "orden": 28
    },
    "51": {
      "codCircuito": "CR 77351",
      "nombreCircuito": "Cusco - Abancay Working",
      "circuito": [
        "CUSCO",
        "ABANCAY"
      ],
      "locCircuitos": [
        [
          461,
          1565
        ],
        [
          528,
          1453
        ]
      ],
      "orden": 29
    },
    "52": {
      "codCircuito": "CR 77404",
      "nombreCircuito": "San Isidro - Huacho Working",
      "circuito": [
        "HUACHO",
        "HUARAL",
        "WASHINGTON",
        "SAN ISIDRO"
      ],
      "locCircuitos": [
        [
          71,
          676
        ],
        [
          70,
          716
        ],
        [
          70,
          758
        ],
        [
          24,
          802
        ]
      ],
      "orden": 10
    },
    "53": {
      "codCircuito": "CR 77420",
      "nombreCircuito": "Monterrico - Huacho Protectio",
      "circuito": [
        "HUACHO",
        "BARRANCA",
        "HUARMEY",
        "HUARICANGA",
        "SANTA ROSA",
        "RECUAY",
        "CONOCOCHA",
        "PILLAO",
        "CARHUAMAYO",
        "JUNIN",
        "LA OROYA",
        "MATUCANA",
        "MONTERRICO"
      ],
      "locCircuitos": [
        [
          71,
          676
        ],
        [
          70,
          634
        ],
        [
          71,
          583
        ],
        [
          151,
          621
        ],
        [
          207,
          645
        ],
        [
          277,
          658
        ],
        [
          359,
          673
        ],
        [
          452,
          672
        ],
        [
          559,
          643
        ],
        [
          534,
          706
        ],
        [
          457,
          798
        ],
        [
          305,
          780
        ],
        [
          120,
          799
        ]
      ],
      "orden": 10
    },
    "54": {
      "codCircuito": "CR 77408",
      "nombreCircuito": "San Isidro - Asia Working",
      "circuito": [
        "ASIA",
        "MALA",
        "LURIN",
        "SAN ISIDRO"
      ],
      "locCircuitos": [
        [
          229,
          909
        ],
        [
          69,
          907
        ],
        [
          68,
          850
        ],
        [
          24,
          802
        ]
      ],
      "orden": 9
    },
    "55": {
      "codCircuito": "CR 77340",
      "nombreCircuito": "Huancayo - Pasco Working",
      "circuito": [
        "HUANCAYO",
        "JAUJA",
        "LA OROYA",
        "JUNIN",
        "CARHUAMAYO",
        "CERRO DE PASCO"
      ],
      "locCircuitos": [
        [
          591,
          910
        ],
        [
          558,
          824
        ],
        [
          457,
          798
        ],
        [
          534,
          706
        ],
        [
          559,
          643
        ],
        [
          603,
          547
        ]
      ],
      "orden": 30
    },
    "56": {
      "codCircuito": "CR 77350",
      "nombreCircuito": "Cusco - Andahuaylas Working",
      "circuito": [
        "ANDAHUAYLAS",
        "ABANCAY",
        "CUSCO"
      ],
      "locCircuitos": [
        [
          593,
          1361
        ],
        [
          528,
          1453
        ],
        [
          461,
          1565
        ]
      ],
      "orden": 31
    }
  }
}